…
``` r
happiness$Country_title = str_to_title(happiness$Country)

happiness %>%
  mutate(Continent = countrycode(Country_title, "country.name", "continent"))
```

    ## Warning in countrycode_convert(sourcevar = sourcevar, origin = origin, destination = dest, : Some values were not matched unambiguously: Kosovo

    ## # A tibble: 158 × 14
    ##    Country     Region         `Happiness Rank` `Happiness Scor… `Standard Error`
    ##    <chr>       <chr>                     <dbl>            <dbl>            <dbl>
    ##  1 Switzerland Western Europe                1             7.59           0.0341
    ##  2 Iceland     Western Europe                2             7.56           0.0488
    ##  3 Denmark     Western Europe                3             7.53           0.0333
    ##  4 Norway      Western Europe                4             7.52           0.0388
    ##  5 Canada      North America                 5             7.43           0.0355
    ##  6 Finland     Western Europe                6             7.41           0.0314
    ##  7 Netherlands Western Europe                7             7.38           0.0280
    ##  8 Sweden      Western Europe                8             7.36           0.0316
    ##  9 New Zealand Australia and…                9             7.29           0.0337
    ## 10 Australia   Australia and…               10             7.28           0.0408
    ## # … with 148 more rows, and 9 more variables: Economy (GDP per Capita) <dbl>,
    ## #   Family <dbl>, Health (Life Expectancy) <dbl>, Freedom <dbl>,
    ## #   Trust (Government Corruption) <dbl>, Generosity <dbl>,
    ## #   Dystopia Residual <dbl>, Country_title <chr>, Continent <chr>
…
